Binary logistic regression with one numerical explanatory variable | Data Analysis: Generalised Linear Models
…
Here we shall begin by fitting a logistic regression model with one numerical explanatory variable. Let's return to the evals data from the moderndive package that we examined in Week 3.

Teaching evaluation scores

Recall from previous weeks that student feedback in higher education is extremely important when it comes to the evaluation of teaching techniques, materials, and improvements in teaching methods and technologies. However, there have been studies into potential bias factors when feedback is provided, such as the physical appearance of the teacher; see Economics of Education Review for details. Here, we shall return to the study of student evaluations of \(n=463\) professors from The University of Texas at Austin.

Previously, we looked at teaching score as our continuous response variable and beauty score as our explanatory variable. Now we shall consider gender as our response variable, and hence shall have a binary response variable (female/male). We will examine if there is any difference in gender by age of the teaching instructors within the evals data set.

First, let's start by selecting the variables of interest from the evals data set:

evals.gender <- evals %>%
                  select(gender, age)

# A tibble: 463 x 2
   gender   age
   <fct>  <int>
 1 female    36
 2 female    36
 3 female    36
 4 female    36
 5 male      59
 6 male      59
 7 male      59
 8 male      51
 9 male      51
10 female    40
# ... with 453 more rows
# i Use `print(n = ...)` to see more rows
…
