Binary logistic regression with one categorical explanatory variable | Data Analysis: Generalised Linear Models
…
            Data Analysis: Generalised Linear Models

Binary logistic regression with one categorical explanatory variable

Instead of having a numerical explanatory variable such as age, let's now use the binary categorical variable ethnicity as our explanatory variable.

evals.ethnic <- evals %>%
                  select(gender, ethnicity)

# A tibble: 463 x 2
   gender ethnicity   
   <fct>  <fct>       
 1 female minority    
 2 female minority    
 3 female minority    
 4 female minority    
 5 male   not minority
 6 male   not minority
 7 male   not minority
 8 male   not minority
 9 male   not minority
10 female not minority
# ... with 453 more rows
# i Use `print(n = ...)` to see more rows
…
Figure 8: The odds-ratio of a male instructor given they are in the not minority group.

Now, let's add the estimates of the odds to our data set:

evals.ethnic <- evals.ethnic %>%
                  mutate(odds.male = exp(logodds.male))

# A tibble: 463 x 4
   gender ethnicity    logodds.male odds.male
   <fct>  <fct>               <dbl>     <dbl>
 1 female minority           -0.251     0.778
 2 female minority           -0.251     0.778
 3 female minority           -0.251     0.778
 4 female minority           -0.251     0.778
 5 male   not minority        0.412     1.51 
 6 male   not minority        0.412     1.51 
 7 male   not minority        0.412     1.51 
 8 male   not minority        0.412     1.51 
 9 male   not minority        0.412     1.51 
10 female not minority        0.412     1.51 
# ... with 453 more rows
# i Use `print(n = ...)` to see more rows
…
plogis(mod.ethnic.coef.logodds["(Intercept)", "Estimate"])

[1] 0.4375

plogis(mod.ethnic.coef.logodds["(Intercept)", "Estimate"] + 
         mod.ethnic.coef.logodds["ethnicitynot minority", "Estimate"]) 

[1] 0.6015038

Hence, the probabilities of an instructor being male given they are in the minority and not minority ethnic groups are 0.437 and 0.602, respectively. Let's add the probabilities to our data:

evals.ethnic <- evals.ethnic %>%
                  mutate(probs.male = fitted(model.ethnic))

# A tibble: 463 x 5
   gender ethnicity    logodds.male odds.male probs.male
   <fct>  <fct>               <dbl>     <dbl>      <dbl>
 1 female minority           -0.251     0.778      0.437
 2 female minority           -0.251     0.778      0.437
 3 female minority           -0.251     0.778      0.437
 4 female minority           -0.251     0.778      0.437
 5 male   not minority        0.412     1.51       0.602
 6 male   not minority        0.412     1.51       0.602
 7 male   not minority        0.412     1.51       0.602
 8 male   not minority        0.412     1.51       0.602
 9 male   not minority        0.412     1.51       0.602
10 female not minority        0.412     1.51       0.602
# ... with 453 more rows
# i Use `print(n = ...)` to see more rows
…
